 {
    "region_name": "REGION VII",
    "province_list": {
      "BOHOL": {
        "municipality_list": {
          "ALBURQUERQUE": {
            "barangay_list": [
              "BAHI",
              "BASACDACU",
              "CANTIGUIB",
              "DANGAY",
              "EAST POBLACION",
              "PONONG",
              "SAN AGUSTIN",
              "SANTA FILOMENA",
              "TAGBUANE",
              "TORIL",
              "WEST POBLACION"
            ]
          },
          "ALICIA": {
            "barangay_list": [
              "CABATANG",
              "CAGONGCAGONG",
              "CAMBAOL",
              "CAYACAY",
              "DEL MONTE",
              "KATIPUNAN",
              "LA HACIENDA",
              "MAHAYAG",
              "NAPO",
              "PAGAHAT",
              "POBLACION (CALINGGANAY)",
              "PROGRESO",
              "PUTLONGCAM",
              "SUDLON (OMHOR)",
              "UNTAGA"
            ]
          },
          "ANDA": {
            "barangay_list": [
              "ALMARIA",
              "BACONG",
              "BADIANG",
              "BUENASUERTE",
              "CANDABONG",
              "CASICA",
              "KATIPUNAN",
              "LINAWAN",
              "LUNDAG",
              "POBLACION",
              "SANTA CRUZ",
              "SUBA",
              "TALISAY",
              "TANOD",
              "TAWID",
              "VIRGEN"
            ]
          },
          "ANTEQUERA": {
            "barangay_list": [
              "ANGILAN",
              "BANTOLINAO",
              "BICAHAN",
              "BITAUGAN",
              "BUNGAHAN",
              "CAN-OMAY",
              "CANLAAS",
              "CANSIBUAN",
              "CELING",
              "DANAO",
              "DANICOP",
              "MAG-ASO",
              "POBLACION",
              "QUINAPON-AN",
              "SANTO ROSARIO",
              "TABUAN",
              "TAGUBAAS",
              "TUPAS",
              "UBOJAN",
              "VIGA",
              "VILLA AURORA (CANOC-OC)"
            ]
          },
          "BACLAYON": {
            "barangay_list": [
              "BUENAVENTURA",
              "CAMBANAC",
              "DASITAM",
              "GUIWANON",
              "LANDICAN",
              "LAYA",
              "LIBERTAD",
              "MONTANA",
              "PAMILACAN",
              "PAYAHAN",
              "POBLACION",
              "SAN ISIDRO",
              "SAN ROQUE",
              "SAN VICENTE",
              "SANTA CRUZ",
              "TAGUIHON",
              "TANDAY"
            ]
          },
          "BALILIHAN": {
            "barangay_list": [
              "BAUCAN NORTE",
              "BAUCAN SUR",
              "BOCTOL",
              "BOYOG NORTE",
              "BOYOG PROPER",
              "BOYOG SUR",
              "CABAD",
              "CANDASIG",
              "CANTALID",
              "CANTOMIMBO",
              "COGON",
              "DATAG NORTE",
              "DATAG SUR",
              "DEL CARMEN ESTE (POB.)",
              "DEL CARMEN NORTE (POB.)",
              "DEL CARMEN SUR (POB.)",
              "DEL CARMEN WESTE (POB.)",
              "DEL ROSARIO",
              "DOROL",
              "HAGUILANAN GRANDE",
              "HANOPOL ESTE",
              "HANOPOL NORTE",
              "HANOPOL WESTE",
              "MAGSIJA",
              "MASLOG",
              "SAGASA",
              "SAL-ING",
              "SAN ISIDRO",
              "SAN ROQUE",
              "SANTO NI\u00d1O",
              "TAGUSTUSAN"
            ]
          },
          "BATUAN": {
            "barangay_list": [
              "ALOJA",
              "BEHIND THE CLOUDS (SAN JOSE)",
              "CABACNITAN",
              "CAMBACAY",
              "CANTIGDAS",
              "GARCIA",
              "JANLUD",
              "POBLACION NORTE",
              "POBLACION SUR",
              "POBLACION VIEJA (LONGSUDAAN)",
              "QUEZON",
              "QUIRINO",
              "RIZAL",
              "ROSARIOHAN",
              "SANTA CRUZ"
            ]
          },
          "BIEN UNIDO": {
            "barangay_list": [
              "BILANGBILANGAN DAKO",
              "BILANGBILANGAN DIOT",
              "HINGOTANAN EAST",
              "HINGOTANAN WEST",
              "LIBERTY",
              "MALINGIN",
              "MANDAWA",
              "MAOMAWAN",
              "NUEVA ESPERANZA",
              "NUEVA ESTRELLA",
              "PINAMGO",
              "POBLACION (BIEN UNIDO)",
              "PUERTO SAN PEDRO",
              "SAGASA",
              "TUBORAN"
            ]
          },
          "BILAR": {
            "barangay_list": [
              "BONIFACIO",
              "BUGANG NORTE",
              "BUGANG SUR",
              "CABACNITAN (MAGSAYSAY)",
              "CAMBIGSI",
              "CAMPAGAO",
              "CANSUMBOL",
              "DAGOHOY",
              "OWAC",
              "POBLACION",
              "QUEZON",
              "RIVERSIDE",
              "RIZAL",
              "ROXAS",
              "SUBAYON",
              "VILLA AURORA",
              "VILLA SUERTE",
              "YANAYA",
              "ZAMORA"
            ]
          },
          "BUENAVISTA": {
            "barangay_list": [
              "ANONANG",
              "ASINAN",
              "BAGO",
              "BALUARTE",
              "BANTUAN",
              "BATO",
              "BONOTBONOT",
              "BUGAONG",
              "CAMBUHAT",
              "CAMBUS-OC",
              "CANGAWA",
              "CANTOMUGCAD",
              "CANTORES",
              "CANTUBA",
              "CATIGBIAN",
              "CAWAG",
              "CRUZ",
              "DAIT",
              "EASTERN CABUL-AN",
              "HUNAN",
              "LAPACAN NORTE",
              "LAPACAN SUR",
              "LUBANG",
              "LUSONG (PLATEAU)",
              "MAGKAYA",
              "MERRYLAND",
              "NUEVA GRANADA",
              "NUEVA MONTANA",
              "OVERLAND",
              "PANGHAGBAN",
              "POBLACION",
              "PUTING BATO",
              "RUFO HILL",
              "SWEETLAND",
              "WESTERN CABUL-AN"
            ]
          },
          "CALAPE": {
            "barangay_list": [
              "ABUCAYAN NORTE",
              "ABUCAYAN SUR",
              "BANLASAN",
              "BENTIG",
              "BINOGAWAN",
              "BONBON",
              "CABAYUGAN",
              "CABUDBURAN",
              "CALUNASAN",
              "CAMIAS",
              "CANGUHA",
              "CATMONAN",
              "DESAMPARADOS (POB.)",
              "KAHAYAG",
              "KINABAG-AN",
              "LABUON",
              "LAWIS",
              "LIBORON",
              "LO-OC",
              "LOMBOY",
              "LUCOB",
              "MADANGOG",
              "MAGTONGTONG",
              "MANDAUG",
              "MANTATAO",
              "SAMPOANGON",
              "SAN ISIDRO",
              "SANTA CRUZ (POB.)",
              "SOJOTON",
              "TALISAY",
              "TINIBGAN",
              "TULTUGAN",
              "ULBUJAN"
            ]
          },
          "CANDIJAY": {
            "barangay_list": [
              "ABIHILAN",
              "ANOLING",
              "BOYO-AN",
              "CADAPDAPAN",
              "CAMBANE",
              "CAN-OLIN",
              "CANAWA",
              "COGTONG",
              "LA UNION",
              "LUAN",
              "LUNGSODA-AN",
              "MAHANGIN",
              "PAGAHAT",
              "PANADTARAN",
              "PANAS",
              "POBLACION",
              "SAN ISIDRO",
              "TAMBONGAN",
              "TAWID",
              "TUBOD (TRES ROSAS)",
              "TUGAS"
            ]
          },
          "CARMEN": {
            "barangay_list": [
              "ALEGRIA",
              "BICAO",
              "BUENAVISTA",
              "BUENOS AIRES",
              "CALATRAVA",
              "EL PROGRESO",
              "EL SALVADOR",
              "GUADALUPE",
              "KATIPUNAN",
              "LA LIBERTAD",
              "LA PAZ",
              "LA SALVACION",
              "LA VICTORIA",
              "MATIN-AO",
              "MONTEHERMOSO",
              "MONTESUERTE",
              "MONTESUNTING",
              "MONTEVIDEO",
              "NUEVA FUERZA",
              "NUEVA VIDA ESTE",
              "NUEVA VIDA NORTE",
              "NUEVA VIDA SUR",
              "POBLACION NORTE",
              "POBLACION SUR",
              "TAMBO-AN",
              "VALLEHERMOSO",
              "VILLAFLOR",
              "VILLAFUERTE",
              "VILLARCAYO"
            ]
          },
          "CATIGBIAN": {
            "barangay_list": [
              "ALEGRIA",
              "AMBUAN",
              "BAANG",
              "BAGTIC",
              "BONGBONG",
              "CAMBAILAN",
              "CANDUMAYAO",
              "CAUSWAGAN NORTE",
              "HAGBUAYA",
              "HAGUILANAN",
              "KANG-IRAS",
              "LIBERTAD SUR",
              "LIBORON",
              "MAHAYAG NORTE",
              "MAHAYAG SUR",
              "MAITUM",
              "MANTASIDA",
              "POBLACION",
              "POBLACION WESTE",
              "RIZAL",
              "SINAKAYANAN",
              "TRIPLE UNION"
            ]
          },
          "CLARIN": {
            "barangay_list": [
              "BACANI",
              "BOGTONGBOD",
              "BONBON",
              "BONTUD",
              "BUACAO",
              "BUANGAN",
              "CABOG",
              "CABOY",
              "CALUWASAN",
              "CANDAJEC",
              "CANTOYOC",
              "COMAANG",
              "DANAHAO",
              "KATIPUNAN",
              "LAJOG",
              "MATAUB",
              "NAHAWAN",
              "POBLACION CENTRO",
              "POBLACION NORTE",
              "POBLACION SUR",
              "TANGARAN",
              "TONTUNAN",
              "TUBOD",
              "VILLAFLOR"
            ]
          },
          "CORELLA": {
            "barangay_list": [
              "ANISLAG",
              "CANANGCA-AN",
              "CANAPNAPAN",
              "CANCATAC",
              "PANDOL",
              "POBLACION",
              "SAMBOG",
              "TANDAY"
            ]
          },
          "CORTES": {
            "barangay_list": [
              "DE LA PAZ",
              "FATIMA",
              "LORETO",
              "LOURDES",
              "MALAYO NORTE",
              "MALAYO SUR",
              "MONSERRAT",
              "NEW LOURDES",
              "PATROCINIO",
              "POBLACION",
              "ROSARIO",
              "SALVADOR",
              "SAN ROQUE",
              "UPPER DE LA PAZ"
            ]
          },
          "DAGOHOY": {
            "barangay_list": [
              "BABAG",
              "CAGAWASAN",
              "CAGAWITAN",
              "CALUASAN",
              "CAN-OLING",
              "CANDELARIA",
              "ESTACA",
              "LA ESPERANZA",
              "MAHAYAG",
              "MALITBOG",
              "POBLACION",
              "SAN MIGUEL",
              "SAN VICENTE",
              "SANTA CRUZ",
              "VILLA AURORA"
            ]
          },
          "DANAO": {
            "barangay_list": [
              "CABATUAN",
              "CANTUBOD",
              "CARBON",
              "CONCEPCION",
              "DAGOHOY",
              "HIBALE",
              "MAGTANGTANG",
              "NAHUD",
              "POBLACION",
              "REMEDIOS",
              "SAN CARLOS",
              "SAN MIGUEL",
              "SANTA FE",
              "SANTO NI\u00d1O",
              "TABOK",
              "TAMING",
              "VILLA ANUNCIADO"
            ]
          },
          "DAUIS": {
            "barangay_list": [
              "BIKING",
              "BINGAG",
              "CATARMAN",
              "DAO",
              "MARIVELES",
              "MAYACABAC",
              "POBLACION",
              "SAN ISIDRO (CANLONGON)",
              "SONGCULAN",
              "TABALONG",
              "TINAGO",
              "TOTOLAN"
            ]
          },
          "DIMIAO": {
            "barangay_list": [
              "ABIHID",
              "ALEMANIA",
              "BAGUHAN",
              "BAKILID",
              "BALBALAN",
              "BANBAN",
              "BAUHUGAN",
              "BILISAN",
              "CABAGAKIAN",
              "CABANBANAN",
              "CADAP-AGAN",
              "CAMBACOL",
              "CAMBAYAON",
              "CANHAYUPON",
              "CANLAMBONG",
              "CASINGAN",
              "CATUGASAN",
              "DATAG",
              "GUINDAGUITAN",
              "GUINGOYURAN",
              "ILE",
              "LAPSAON",
              "LIMOKON ILAOD",
              "LIMOKON ILAYA",
              "LUYO",
              "MALIJAO",
              "OAC",
              "PAGSA",
              "PANGIHAWAN",
              "PUANGYUTA",
              "SAWANG",
              "TANGOHAY",
              "TAONGON CABATUAN",
              "TAONGON CAN-ANDAM",
              "TAWID BITAOG"
            ]
          },
          "DUERO": {
            "barangay_list": [
              "ALEJAWAN",
              "ANGILAN",
              "ANIBONGAN",
              "BANGWALOG",
              "CANSUHAY",
              "DANAO",
              "DUAY",
              "GUINSULARAN",
              "IMELDA",
              "ITUM",
              "LANGKIS",
              "LOBOGON",
              "MADUA NORTE",
              "MADUA SUR",
              "MAMBOOL",
              "MAWI",
              "PAYAO",
              "SAN ANTONIO (POB.)",
              "SAN ISIDRO",
              "SAN PEDRO",
              "TAYTAY"
            ]
          },
          "GARCIA HERNANDEZ": {
            "barangay_list": [
              "ABIJILAN",
              "ANTIPOLO",
              "BASIAO",
              "CAGWANG",
              "CALMA",
              "CAMBUYO",
              "CANAYAON EAST",
              "CANAYAON WEST",
              "CANDANAS",
              "CANDULAO",
              "CATMON",
              "CAYAM",
              "CUPA",
              "DATAG",
              "ESTACA",
              "LIBERTAD",
              "LUNGSODAAN EAST",
              "LUNGSODAAN WEST",
              "MALINAO",
              "MANABA",
              "PASONG",
              "POBLACION EAST",
              "POBLACION WEST",
              "SACAON",
              "SAMPONG",
              "TABUAN",
              "TOGBONGON",
              "ULBUJAN EAST",
              "ULBUJAN WEST",
              "VICTORIA"
            ]
          },
          "GUINDULMAN": {
            "barangay_list": [
              "BASDIO",
              "BATO",
              "BAYONG",
              "BIABAS",
              "BULAWAN",
              "CABANTIAN",
              "CANHAWAY",
              "CANSIWANG",
              "CASBU",
              "CATUNGAWAN NORTE",
              "CATUNGAWAN SUR",
              "GUINACOT",
              "GUIO-ANG",
              "LOMBOG",
              "MAYUGA",
              "SAWANG (POB.)",
              "TABAJAN (POB.)",
              "TABUNOK",
              "TRINIDAD"
            ]
          },
          "INABANGA": {
            "barangay_list": [
              "ANONANG",
              "BADIANG",
              "BAGUHAN",
              "BAHAN",
              "BANAHAO",
              "BAOGO",
              "BUGANG",
              "CAGAWASAN",
              "CAGAYAN",
              "CAMBITOON",
              "CANLINTE",
              "CAWAYAN",
              "COGON",
              "CUAMING",
              "DAGNAWAN",
              "DAGOHOY",
              "DAIT SUR",
              "DATAG",
              "FATIMA",
              "HAMBONGAN",
              "ILAUD (POB.)",
              "ILAYA",
              "ILIHAN",
              "LAPACAN NORTE",
              "LAPACAN SUR",
              "LAWIS",
              "LILOAN NORTE",
              "LILOAN SUR",
              "LOMBOY",
              "LONOY CAINSICAN",
              "LONOY ROMA",
              "LUTAO",
              "LUYO",
              "MABUHAY",
              "MARIA ROSARIO",
              "NABUAD",
              "NAPO",
              "ONDOL",
              "POBLACION",
              "RIVERSIDE",
              "SAA",
              "SAN ISIDRO",
              "SAN JOSE",
              "SANTO NI\u00d1O",
              "SANTO ROSARIO",
              "SUA",
              "TAMBOOK",
              "TUNGOD",
              "U-OG",
              "UBUJAN"
            ]
          },
          "JAGNA": {
            "barangay_list": [
              "ALEJAWAN",
              "BALILI",
              "BOCTOL",
              "BUNGA ILAYA",
              "BUNGA MAR",
              "BUYOG",
              "CABUNGA-AN",
              "CALABACITA",
              "CAMBUGASON",
              "CAN-IPOL",
              "CAN-UBA",
              "CAN-UPAO",
              "CANJULAO",
              "CANTAGAY",
              "CANTUYOC",
              "FARAON",
              "IPIL",
              "KINAGBAAN",
              "LACA",
              "LARAPAN",
              "LONOY",
              "LOOC",
              "MALBOG",
              "MAYANA",
              "NAATANG",
              "NAUSOK",
              "ODIONG",
              "PAGINA",
              "PANGDAN",
              "POBLACION (PONDOL)",
              "TEJERO",
              "TUBOD MAR",
              "TUBOD MONTE"
            ]
          },
          "JETAFE": {
            "barangay_list": [
              "ALUMAR",
              "BANACON",
              "BUYOG",
              "CABASAKAN",
              "CAMPAO OCCIDENTAL",
              "CAMPAO ORIENTAL",
              "CANGMUNDO",
              "CARLOS P. GARCIA",
              "CORTE BAUD",
              "HANDUMON",
              "JAGOLIAO",
              "JANDAYAN NORTE",
              "JANDAYAN SUR",
              "MAHANAY (MAHANAY ISLAND)",
              "NASINGIN",
              "PANDANON",
              "POBLACION",
              "SAGUISE",
              "SALOG",
              "SAN JOSE",
              "SANTO NI\u00d1O",
              "TAYTAY",
              "TUGAS",
              "TULANG"
            ]
          },
          "LILA": {
            "barangay_list": [
              "BANBAN",
              "BONKOKAN ILAYA",
              "BONKOKAN UBOS",
              "CALVARIO",
              "CANDULANG",
              "CATUGASAN",
              "CAYUPO",
              "COGON",
              "JAMBAWAN",
              "LA FORTUNA",
              "LOMANOY",
              "MACALINGAN",
              "MALINAO EAST",
              "MALINAO WEST",
              "NAGSULAY",
              "POBLACION",
              "TAUG",
              "TIGUIS"
            ]
          },
          "LOAY": {
            "barangay_list": [
              "AGAPE",
              "ALEGRIA NORTE",
              "ALEGRIA SUR",
              "BONBON",
              "BOTOC OCCIDENTAL",
              "BOTOC ORIENTAL",
              "CALVARIO",
              "CONCEPCION",
              "HINAWANAN",
              "LAS SALINAS NORTE",
              "LAS SALINAS SUR",
              "PALO",
              "POBLACION IBABAO",
              "POBLACION UBOS",
              "SAGNAP",
              "TAMBANGAN",
              "TANGCASAN NORTE",
              "TANGCASAN SUR",
              "TAYONG OCCIDENTAL",
              "TAYONG ORIENTAL",
              "TOCDOG DACU",
              "TOCDOG ILAYA",
              "VILLALIMPIA",
              "YANANGAN"
            ]
          },
          "LOBOC": {
            "barangay_list": [
              "AGAPE",
              "ALEGRIA",
              "BAGUMBAYAN",
              "BAHIAN",
              "BONBON LOWER",
              "BONBON UPPER",
              "BUENAVISTA",
              "BUGHO",
              "CABADIANGAN",
              "CALUNASAN NORTE",
              "CALUNASAN SUR",
              "CAMAYAAN",
              "CAMBANCE",
              "CANDABONG",
              "CANDASAG",
              "CANLASID",
              "GON-OB",
              "GOTOZON",
              "JIMILIAN",
              "OY",
              "POBLACION ONDOL",
              "POBLACION SAWANG",
              "QUINOGUITAN",
              "TAYTAY",
              "TIGBAO",
              "UGPONG",
              "VALLADOLID",
              "VILLAFLOR"
            ]
          },
          "LOON": {
            "barangay_list": [
              "AGSOSO",
              "BADBAD OCCIDENTAL",
              "BADBAD ORIENTAL",
              "BAGACAY KATIPUNAN",
              "BAGACAY KAWAYAN",
              "BAGACAY SAONG",
              "BAHI",
              "BASAC",
              "BASDACU",
              "BASDIO",
              "BIASONG",
              "BONGCO",
              "BUGHO",
              "CABACONGAN",
              "CABADUG",
              "CABUG",
              "CALAYUGAN NORTE",
              "CALAYUGAN SUR",
              "CAMBAQUIZ",
              "CAMPATUD",
              "CANDAIGAN",
              "CANHANGDON OCCIDENTAL",
              "CANHANGDON ORIENTAL",
              "CANIGAAN",
              "CANMAAG",
              "CANMANOC",
              "CANSUAGWIT",
              "CANSUBAYON",
              "CANTAM-IS BAGO",
              "CANTAM-IS BASLAY",
              "CANTAONGON",
              "CANTUMOCAD",
              "CATAGBACAN HANDIG",
              "CATAGBACAN NORTE",
              "CATAGBACAN SUR",
              "COGON NORTE (POB.)",
              "COGON SUR",
              "CUASI",
              "GENOMOAN",
              "LINTUAN",
              "LOOC",
              "MOCPOC NORTE",
              "MOCPOC SUR",
              "MOTO NORTE (POB.)",
              "MOTO SUR (POB.)",
              "NAGTUANG",
              "NAPO (POB.)",
              "NUEVA VIDA",
              "PANANGQUILON",
              "PANTUDLAN",
              "PIG-OT",
              "PONDOL",
              "QUINOBCOBAN",
              "SONDOL",
              "SONG-ON",
              "TALISAY",
              "TAN-AWAN",
              "TANGNAN",
              "TAYTAY",
              "TICUGAN",
              "TIWI",
              "TONTONAN",
              "TUBODACU",
              "TUBODIO",
              "TUBUAN",
              "UBAYON",
              "UBOJAN"
            ]
          },
          "MABINI": {
            "barangay_list": [
              "ABACA",
              "ABAD SANTOS",
              "AGUIPO",
              "BAYBAYON",
              "BULAWAN",
              "CABIDIAN",
              "CAWAYANAN",
              "CONCEPCION (BANLAS)",
              "DEL MAR",
              "LUNGSODA-AN",
              "MARCELO",
              "MINOL",
              "PARAISO",
              "POBLACION I",
              "POBLACION II",
              "SAN ISIDRO",
              "SAN JOSE",
              "SAN RAFAEL",
              "SAN ROQUE (CABULAO)",
              "TAMBO",
              "TANGKIGAN",
              "VALAGA"
            ]
          },
          "MARIBOJOC": {
            "barangay_list": [
              "AGAHAY",
              "ALIGUAY",
              "ANISLAG",
              "BAYACABAC",
              "BOOD",
              "BUSAO",
              "CABAWAN",
              "CANDAVID",
              "DIPATLONG",
              "GUIWANON",
              "JANDIG",
              "LAGTANGON",
              "LINCOD",
              "PAGNITOAN",
              "POBLACION",
              "PUNSOD",
              "PUNTA CRUZ",
              "SAN ISIDRO",
              "SAN ROQUE (AGHAO)",
              "SAN VICENTE",
              "TINIBGAN",
              "TORIL"
            ]
          },
          "PANGLAO": {
            "barangay_list": [
              "BIL-ISAN",
              "BOLOD",
              "DANAO",
              "DOLJO",
              "LIBAONG",
              "LOOC",
              "LOURDES",
              "POBLACION",
              "TANGNAN",
              "TAWALA"
            ]
          },
          "PILAR": {
            "barangay_list": [
              "AURORA",
              "BAGACAY",
              "BAGUMBAYAN",
              "BAYONG",
              "BUENASUERTE",
              "CAGAWASAN",
              "CANSUNGAY",
              "CATAGDA-AN",
              "DEL PILAR",
              "ESTACA",
              "ILAUD",
              "INAGHUBAN",
              "LA SUERTE",
              "LUMBAY",
              "LUNDAG",
              "PAMACSALAN",
              "POBLACION",
              "RIZAL",
              "SAN CARLOS",
              "SAN ISIDRO",
              "SAN VICENTE"
            ]
          },
          "PRES. CARLOS P. GARCIA (PITOGO)": {
            "barangay_list": [
              "AGUINING",
              "BASIAO",
              "BAUD",
              "BAYOG",
              "BOGO",
              "BONBONON",
              "BUTAN",
              "CAMPAMANOG",
              "CANMANGAO",
              "GAUS",
              "KABANGKALAN",
              "LAPINIG",
              "LIPATA",
              "POBLACION",
              "POPOO",
              "SAGUISE",
              "SAN JOSE (TAWID)",
              "SAN VICENTE",
              "SANTO ROSARIO",
              "TILMOBO",
              "TUGAS",
              "TUGNAO",
              "VILLA MILAGROSA"
            ]
          },
          "SAGBAYAN (BORJA)": {
            "barangay_list": [
              "CALANGAHAN",
              "CANMANO",
              "CANMAYA CENTRO",
              "CANMAYA DIOT",
              "DAGNAWAN",
              "KABASACAN",
              "KAGAWASAN",
              "KATIPUNAN",
              "LANGTAD",
              "LIBERTAD NORTE",
              "LIBERTAD SUR",
              "MANTALONGON",
              "POBLACION",
              "SAGBAYAN SUR",
              "SAN AGUSTIN",
              "SAN ANTONIO",
              "SAN ISIDRO",
              "SAN RAMON",
              "SAN ROQUE",
              "SAN VICENTE NORTE",
              "SAN VICENTE SUR",
              "SANTA CATALINA",
              "SANTA CRUZ",
              "UBOJAN"
            ]
          },
          "SAN ISIDRO": {
            "barangay_list": [
              "ABEHILAN",
              "BARYONG DAAN",
              "BAUNOS",
              "CABANUGAN",
              "CAIMBANG",
              "CAMBANSAG",
              "CANDUNGAO",
              "CANSAGUE NORTE",
              "CANSAGUE SUR",
              "CAUSWAGAN SUR",
              "MASONOY",
              "POBLACION"
            ]
          },
          "SAN MIGUEL": {
            "barangay_list": [
              "BAYONGAN",
              "BUGANG",
              "CABANGAHAN",
              "CALUASAN",
              "CAMANAGA",
              "CAMBANGAY NORTE",
              "CAPAYAS",
              "CORAZON",
              "GARCIA",
              "HAGBUYO",
              "KAGAWASAN",
              "MAHAYAG",
              "POBLACION",
              "SAN ISIDRO",
              "SAN JOSE",
              "SAN VICENTE",
              "SANTO NI\u00d1O",
              "TOMOC"
            ]
          },
          "SEVILLA": {
            "barangay_list": [
              "BAYAWAHAN",
              "CABANCALAN",
              "CALINGA-AN",
              "CALINGINAN NORTE",
              "CALINGINAN SUR",
              "CAMBAGUI",
              "EWON",
              "GUINOB-AN",
              "LAGTANGAN",
              "LICOLICO",
              "LOBGOB",
              "MAGSAYSAY",
              "POBLACION"
            ]
          },
          "SIERRA BULLONES": {
            "barangay_list": [
              "ABACHANAN",
              "ANIBONGAN",
              "BUGSOC",
              "CAHAYAG",
              "CANLANGIT",
              "CANTA-UB",
              "CASILAY",
              "DANICOP",
              "DUSITA",
              "LA UNION",
              "LATABAN",
              "MAGSAYSAY",
              "MAN-OD",
              "MATIN-AO",
              "POBLACION",
              "SALVADOR",
              "SAN AGUSTIN",
              "SAN ISIDRO",
              "SAN JOSE",
              "SAN JUAN",
              "SANTA CRUZ",
              "VILLA GARCIA"
            ]
          },
          "SIKATUNA": {
            "barangay_list": [
              "ABUCAY NORTE",
              "ABUCAY SUR",
              "BADIANG",
              "BAHAYBAHAY",
              "CAMBUAC NORTE",
              "CAMBUAC SUR",
              "CANAGONG",
              "LIBJO",
              "POBLACION I",
              "POBLACION II"
            ]
          },
          "TAGBILARAN CITY": {
            "barangay_list": [
              "BOOL",
              "BOOY",
              "CABAWAN",
              "COGON",
              "DAMPAS",
              "DAO",
              "MANGA",
              "MANSASA",
              "POBLACION I",
              "POBLACION II",
              "POBLACION III",
              "SAN ISIDRO",
              "TALOTO",
              "TIPTIP",
              "UBUJAN"
            ]
          },
          "TALIBON": {
            "barangay_list": [
              "BAGACAY",
              "BALINTAWAK",
              "BURGOS",
              "BUSALIAN",
              "CALITUBAN",
              "CATABAN",
              "GUINDACPAN",
              "MAGSAYSAY",
              "MAHANAY",
              "NOCNOCAN",
              "POBLACION",
              "RIZAL",
              "SAG",
              "SAN AGUSTIN",
              "SAN CARLOS",
              "SAN FRANCISCO",
              "SAN ISIDRO",
              "SAN JOSE",
              "SAN PEDRO",
              "SAN ROQUE",
              "SANTO NI\u00d1O",
              "SIKATUNA",
              "SUBA",
              "TANGHALIGUE",
              "ZAMORA"
            ]
          },
          "TRINIDAD": {
            "barangay_list": [
              "BANLASAN",
              "BONGBONG",
              "CATOOGAN",
              "GUINOBATAN",
              "HINLAYAGAN ILAUD",
              "HINLAYAGAN ILAYA",
              "KAUSWAGAN",
              "KINAN-OAN",
              "LA UNION",
              "LA VICTORIA",
              "MABUHAY CABIGOHAN",
              "MAHAGBU",
              "MANUEL M. ROXAS",
              "POBLACION",
              "SAN ISIDRO",
              "SAN VICENTE",
              "SANTO TOMAS",
              "SOOM",
              "TAGUM NORTE",
              "TAGUM SUR"
            ]
          },
          "TUBIGON": {
            "barangay_list": [
              "BAGONGBANWA",
              "BANLASAN",
              "BATASAN (BATASAN ISLAND)",
              "BILANGBILANGAN (BILANGBILANGAN ISLAND)",
              "BOSONGON",
              "BUENOS AIRES",
              "BUNACAN",
              "CABULIHAN",
              "CAHAYAG",
              "CAWAYANAN",
              "CENTRO (POB.)",
              "GENONOCAN",
              "GUIWANON",
              "ILIHAN NORTE",
              "ILIHAN SUR",
              "LIBERTAD",
              "MACAAS",
              "MATABAO",
              "MOCABOC ISLAND",
              "PANADTARAN",
              "PANAYTAYON",
              "PANDAN",
              "PANGAPASAN (PANGAPASAN ISLAND)",
              "PINAYAGAN NORTE",
              "PINAYAGAN SUR",
              "POOC OCCIDENTAL (POB.)",
              "POOC ORIENTAL (POB.)",
              "POTOHAN",
              "TALENCERAS",
              "TAN-AWAN",
              "TINANGNAN",
              "UBAY ISLAND",
              "UBOJAN",
              "VILLANUEVA"
            ]
          },
          "UBAY": {
            "barangay_list": [
              "ACHILA",
              "BAY-ANG",
              "BENLIW",
              "BIABAS",
              "BONGBONG",
              "BOOD",
              "BUENAVISTA",
              "BULILIS",
              "CAGTING",
              "CALANGGAMAN",
              "CALIFORNIA",
              "CAMALI-AN",
              "CAMAMBUGAN",
              "CASATE",
              "CUYA",
              "FATIMA",
              "GABI",
              "GOVERNOR BOYLES",
              "GUINTABO-AN",
              "HAMBABAURAN",
              "HUMAYHUMAY",
              "ILIHAN",
              "IMELDA",
              "JUAGDAN",
              "KATARUNGAN",
              "LOMANGOG",
              "LOS ANGELES",
              "PAG-ASA",
              "PANGPANG",
              "POBLACION",
              "SAN FRANCISCO",
              "SAN ISIDRO",
              "SAN PASCUAL",
              "SAN VICENTE",
              "SENTINILA",
              "SINANDIGAN",
              "TAPAL",
              "TAPON",
              "TINTINAN",
              "TIPOLO",
              "TUBOG",
              "TUBORAN",
              "UNION",
              "VILLA TERESITA"
            ]
          },
          "VALENCIA": {
            "barangay_list": [
              "ADLAWAN",
              "ANAS",
              "ANONANG",
              "ANOYON",
              "BALINGASAO",
              "BANDERAHAN (UPPER GINOPOLAN)",
              "BOTONG",
              "BUYOG",
              "CANDUAO OCCIDENTAL",
              "CANDUAO ORIENTAL",
              "CANLUSONG",
              "CANMANICO",
              "CANSIBAO",
              "CATUG-A",
              "CUTCUTAN",
              "DANAO",
              "GENOVEVA",
              "GINOPOLAN (GINOPOLAN PROPER)",
              "LA VICTORIA",
              "LANTANG",
              "LIMOCON",
              "LOCTOB",
              "MAGSAYSAY",
              "MARAWIS",
              "MAUBO",
              "NAILO",
              "OMJON",
              "PANGI-AN",
              "POBLACION OCCIDENTAL",
              "POBLACION ORIENTAL",
              "SIMANG",
              "TAUG",
              "TAUSION",
              "TAYTAY",
              "TICUM"
            ]
          }
        }
      },
      "CEBU": {
        "municipality_list": {
          "ALCANTARA": {
            "barangay_list": [
              "CABADIANGAN",
              "CABIL-ISAN",
              "CANDABONG",
              "LAWAAN",
              "MANGA",
              "PALANAS",
              "POBLACION",
              "POLO",
              "SALAGMAYA"
            ]
          },
          "ALCOY": {
            "barangay_list": [
              "ATABAY",
              "DAAN-LUNGSOD",
              "GUIWANG",
              "NUG-AS",
              "PASOL",
              "POBLACION",
              "PUGALO",
              "SAN AGUSTIN"
            ]
          },
          "ALEGRIA": {
            "barangay_list": [
              "COMPOSTELA",
              "GUADALUPE",
              "LEGASPI",
              "LEPANTO",
              "MADRIDEJOS",
              "MONTPELLER",
              "POBLACION",
              "SANTA FILOMENA",
              "VALENCIA"
            ]
          },
          "ALOGUINSAN": {
            "barangay_list": [
              "ANGILAN",
              "BOJO",
              "BONBON",
              "ESPERANZA",
              "KANDINGAN",
              "KANTABOGON",
              "KAWASAN",
              "OLANGO",
              "POBLACION",
              "PUNAY",
              "ROSARIO",
              "SAKSAK",
              "TAMPA-AN",
              "TOYOKON",
              "ZARAGOSA"
            ]
          },
          "ARGAO": {
            "barangay_list": [
              "ALAMBIJUD",
              "ANAJAO",
              "APO",
              "BALAAS",
              "BALISONG",
              "BINLOD",
              "BOGO",
              "BUG-OT",
              "BULASA",
              "BUTONG",
              "CALAGASAN",
              "CANBANTUG",
              "CANBANUA",
              "CANSUJE",
              "CAPIO-AN",
              "CASAY",
              "CATANG",
              "COLAWIN",
              "CONALUM",
              "GUIWANON",
              "GUTLANG",
              "JAMPANG",
              "JOMGAO",
              "LAMACAN",
              "LANGTAD",
              "LANGUB",
              "LAPAY",
              "LENGIGON",
              "LINUT-OD",
              "MABASA",
              "MANDILIKIT",
              "MOMPELLER",
              "PANADTARAN",
              "POBLACION",
              "SUA",
              "SUMAGUAN",
              "TABAYAG",
              "TALAGA",
              "TALAYTAY",
              "TALO-OT",
              "TIGUIB",
              "TULANG",
              "TULIC",
              "UBAUB",
              "USMAD"
            ]
          },
          "ASTURIAS": {
            "barangay_list": [
              "AGBANGA",
              "AGTUGOP",
              "BAGO",
              "BAIRAN",
              "BANBAN",
              "BAYE",
              "BOG-O",
              "KALUANGAN",
              "LANAO",
              "LANGUB",
              "LOOC NORTE",
              "LUNAS",
              "MAGCALAPE",
              "MANGUIAO",
              "NEW BAGO",
              "OWAK",
              "POBLACION",
              "SAKSAK",
              "SAN ISIDRO",
              "SAN ROQUE",
              "SANTA LUCIA",
              "SANTA RITA",
              "TAG-AMAKAN",
              "TAGBUBONGA",
              "TUBIGAGMANOK",
              "TUBOD",
              "UBOGON"
            ]
          },
          "BADIAN": {
            "barangay_list": [
              "ALAWIJAO",
              "BALHAAN",
              "BANHIGAN",
              "BASAK",
              "BASIAO",
              "BATO",
              "BUGAS",
              "CALANGCANG",
              "CANDIIS",
              "DAGATAN",
              "DOBDOB",
              "GINABLAN",
              "LAMBUG",
              "MALABAGO",
              "MALHIAO",
              "MANDUYONG",
              "MATUTINAO",
              "PATONG",
              "POBLACION",
              "SANLAGAN",
              "SANTICON",
              "SOHOTON",
              "SULSUGAN",
              "TALAYONG",
              "TAYTAY",
              "TIGBAO",
              "TIGUIB",
              "TUBOD",
              "ZARAGOSA"
            ]
          },
          "BALAMBAN": {
            "barangay_list": [
              "ABUCAYAN",
              "ALIWANAY",
              "ARPILI",
              "BALIWAGAN (POB.)",
              "BAYONG",
              "BIASONG",
              "BUANOY",
              "CABAGDALAN",
              "CABASIANGAN",
              "CAMBUHAWE",
              "CANSOMOROY",
              "CANTIBAS",
              "CANTUOD",
              "DUANGAN",
              "GAAS",
              "GINATILAN",
              "HINGATMONAN",
              "LAMESA",
              "LIKI",
              "LUCA",
              "MATUN-OG",
              "NANGKA",
              "PONDOL",
              "PRENZA",
              "SANTA CRUZ-SANTO NI\u00d1O (POB.)",
              "SINGSING",
              "SUNOG",
              "VITO"
            ]
          },
          "BANTAYAN": {
            "barangay_list": [
              "ATOP-ATOP",
              "BAIGAD",
              "BANTIGUE (POB.)",
              "BAOD",
              "BINAOBAO (POB.)",
              "BOTIGUES",
              "DOONG",
              "GUIWANON",
              "HILOTONGAN",
              "KABAC",
              "KABANGBANG",
              "KAMPINGGANON",
              "KANGKAIBE",
              "LIPAYRAN",
              "LUYONGBAYBAY",
              "MOJON",
              "OBO-OB",
              "PATAO",
              "PUTIAN",
              "SILLON",
              "SUBA (POB.)",
              "SULANGAN",
              "SUNGKO",
              "TAMIAO",
              "TICAD (POB.)"
            ]
          },
          "BARILI": {
            "barangay_list": [
              "AZUCENA",
              "BAGAKAY",
              "BALAO",
              "BOLOCBOLOC",
              "BUDBUD",
              "BUGTONG KAWAYAN",
              "CABCABAN",
              "CAGAY",
              "CAMPANGGA",
              "CANDUGAY",
              "DAKIT",
              "GILOCTOG",
              "GIWANON",
              "GUIBUANGAN",
              "GUNTING",
              "HILASGASAN",
              "JAPITAN",
              "KALUBIHAN",
              "KANGDAMPAS",
              "LUHOD",
              "LUPO",
              "LUYO",
              "MAGHANOY",
              "MAIGANG",
              "MALOLOS",
              "MANTALONGON",
              "MANTAYUPAN",
              "MAYANA",
              "MINOLOS",
              "NABUNTURAN",
              "NASIPIT",
              "PANCIL",
              "PANGPANG",
              "PARIL",
              "PATUPAT",
              "POBLACION",
              "SAN RAFAEL",
              "SANTA ANA",
              "SAYAW",
              "TAL-OT",
              "TUBOD",
              "VITO"
            ]
          },
          "BOGO CITY": {
            "barangay_list": [
              "ANONANG NORTE",
              "ANONANG SUR",
              "BANBAN",
              "BINABAG",
              "BUNGTOD (POB.)",
              "CARBON (POB.)",
              "CAYANG",
              "COGON (POB.)",
              "DAKIT",
              "DON PEDRO RODRIGUEZ",
              "GAIRAN",
              "GUADALUPE",
              "LA PAZ",
              "LA PURISIMA CONCEPCION (POB.)",
              "LIBERTAD",
              "LOURDES (POB.)",
              "MALINGIN",
              "MARANGOG",
              "NAILON",
              "ODLOT",
              "PANDAN (PANDAN HEIGHTS)",
              "POLAMBATO",
              "SAMBAG (POB.)",
              "SAN VICENTE (POB.)",
              "SANTO NI\u00d1O",
              "SANTO ROSARIO (POB.)",
              "SIOCON",
              "SUDLONON",
              "TAYTAYAN"
            ]
          },
          "BOLJOON": {
            "barangay_list": [
              "ARBOR",
              "BACLAYAN",
              "EL PARDO",
              "GRANADA",
              "LOWER BECERRIL",
              "LUNOP",
              "NANGKA",
              "POBLACION",
              "SAN ANTONIO",
              "SOUTH GRANADA",
              "UPPER BECERRIL"
            ]
          },
          "BORBON": {
            "barangay_list": [
              "BAGACAY",
              "BILI",
              "BINGAY",
              "BONGDO",
              "BONGDO GUA",
              "BONGOYAN",
              "CADARUHAN",
              "CAJEL",
              "CAMPUSONG",
              "CLAVERA",
              "DON GREGORIO ANTIGUA (TAYTAYAN)",
              "LAAW",
              "LUGO",
              "MANAGASE",
              "POBLACION",
              "SAGAY",
              "SAN JOSE",
              "TABUNAN",
              "TAGNUCAN"
            ]
          },
          "CARCAR CITY": {
            "barangay_list": [
              "BOLINAWAN",
              "BUENAVISTA",
              "CALIDNGAN",
              "CAN-ASUJAN",
              "GUADALUPE",
              "LIBURON",
              "NAPO",
              "OCANA",
              "PERRELOS",
              "POBLACION I",
              "POBLACION II",
              "POBLACION III",
              "TUYOM",
              "VALENCIA",
              "VALLADOLID"
            ]
          },
          "CARMEN": {
            "barangay_list": [
              "BARING",
              "CANTIPAY",
              "CANTUKONG",
              "CANTUMOG",
              "CAURASAN",
              "COGON EAST",
              "COGON WEST",
              "CORTE",
              "DAWIS NORTE",
              "DAWIS SUR",
              "HAGNAYA",
              "IPIL",
              "LANIPGA",
              "LIBORON",
              "LOWER NATIMAO-AN",
              "LUYANG",
              "POBLACION",
              "PUENTE",
              "SAC-ON",
              "TRIUMFO",
              "UPPER NATIMAO-AN"
            ]
          },
          "CATMON": {
            "barangay_list": [
              "AGSUWAO",
              "AMANCION",
              "ANAPOG",
              "BACTAS",
              "BASAK",
              "BINONGKALAN",
              "BONGYAS",
              "CABUNGAAN",
              "CAMBANGKAYA",
              "CAN-IBUANG",
              "CATMONDAAN",
              "CORAZON (POB.)",
              "DUYAN",
              "FLORES (POB.)",
              "GINABUCAN",
              "MACAAS",
              "PANALIPAN",
              "SAN JOSE POB. (CATADMAN)",
              "TABILI",
              "TINABYONAN"
            ]
          },
          "CEBU CITY": {
            "barangay_list": [
              "ADLAON",
              "AGSUNGOT",
              "APAS",
              "BABAG",
              "BACAYAN",
              "BANILAD",
              "BASAK PARDO",
              "BASAK SAN NICOLAS",
              "BINALIW",
              "BONBON",
              "BUDLA-AN (POB.)",
              "BUHISAN",
              "BULACAO",
              "BUOT-TAUP PARDO",
              "BUSAY (POB.)",
              "CALAMBA",
              "CAMBINOCOT",
              "CAMPUTHAW (POB.)",
              "CAPITOL SITE (POB.)",
              "CARRETA",
              "CENTRAL (POB.)",
              "COGON  PARDO",
              "COGON  RAMOS (POB.)",
              "DAY-AS",
              "DULJO (POB.)",
              "ERMITA (POB.)",
              "GUADALUPE",
              "GUBA",
              "HIPPODROMO",
              "INAYAWAN",
              "KALUBIHAN (POB.)",
              "KALUNASAN",
              "KAMAGAYAN (POB.)",
              "KASAMBAGAN",
              "KINASANG-AN PARDO",
              "LABANGON",
              "LAHUG (POB.)",
              "LOREGA (LOREGA SAN MIGUEL)",
              "LUSARAN",
              "LUZ",
              "MABINI",
              "MABOLO",
              "MALUBOG",
              "MAMBALING",
              "PAHINA CENTRAL (POB.)",
              "PAHINA SAN NICOLAS",
              "PAMUTAN",
              "PARDO (POB.)",
              "PARI-AN",
              "PARIL",
              "PASIL",
              "PIT-OS",
              "PULANGBATO",
              "PUNG-OL-SIBUGAY",
              "PUNTA PRINCESA",
              "QUIOT PARDO",
              "SAMBAG I (POB.)",
              "SAMBAG II (POB.)",
              "SAN ANTONIO (POB.)",
              "SAN JOSE",
              "SAN NICOLAS CENTRAL",
              "SAN ROQUE (CIUDAD)",
              "SANTA CRUZ (POB.)",
              "SAPANGDAKU",
              "SAWANG CALERO (POB.)",
              "SINSIN",
              "SIRAO",
              "SUBA POB. (SUBA SAN NICOLAS)",
              "SUDLON I",
              "SUDLON II",
              "T. PADILLA",
              "TABUNAN",
              "TAGBAO",
              "TALAMBAN",
              "TAPTAP",
              "TEJERO (VILLA GONZALO)",
              "TINAGO",
              "TISA",
              "TO-ONG PARDO",
              "ZAPATERA"
            ]
          },
          "COMPOSTELA": {
            "barangay_list": [
              "BAGALNGA",
              "BASAK",
              "BULUANG",
              "CABADIANGAN",
              "CAMBAYOG",
              "CANAMUCAN",
              "COGON",
              "DAPDAP",
              "ESTACA",
              "LUPA",
              "MAGAY",
              "MULAO",
              "PANANGBAN",
              "POBLACION",
              "TAG-UBE",
              "TAMIAO",
              "TUBIGAN"
            ]
          },
          "CONSOLACION": {
            "barangay_list": [
              "CABANGAHAN",
              "CANSAGA",
              "CASILI",
              "DANGLAG",
              "GARING",
              "JUGAN",
              "LAMAC",
              "LANIPGA",
              "NANGKA",
              "PANAS",
              "PANOYPOY",
              "PITOGO",
              "POBLACION OCCIDENTAL",
              "POBLACION ORIENTAL",
              "POLOG",
              "PULPOGAN",
              "SACSAC",
              "TAYUD",
              "TILHAONG",
              "TOLOTOLO",
              "TUGBONGAN"
            ]
          },
          "CORDOBA": {
            "barangay_list": [
              "ALEGRIA",
              "BANGBANG",
              "BUAGSONG",
              "CATARMAN",
              "COGON",
              "DAPITAN",
              "DAY-AS",
              "GABI",
              "GILUTONGAN",
              "IBABAO",
              "PILIPOG",
              "POBLACION",
              "SAN MIGUEL"
            ]
          },
          "DAANBANTAYAN": {
            "barangay_list": [
              "AGUHO",
              "BAGAY",
              "BAKHAWAN",
              "BATERIA",
              "BITOON",
              "CALAPE",
              "CARNAZA",
              "DALINGDING",
              "LANAO",
              "LOGON",
              "MALBAGO",
              "MALINGIN",
              "MAYA",
              "PAJO",
              "PAYPAY",
              "POBLACION",
              "TALISAY",
              "TAPILON",
              "TINUBDAN",
              "TOMINJAO"
            ]
          },
          "DALAGUETE": {
            "barangay_list": [
              "ABLAYAN",
              "BABAYONGAN",
              "BALUD",
              "BANHIGAN",
              "BULAK",
              "CALERIOHAN",
              "CALIONGAN",
              "CASAY",
              "CATOLOHAN",
              "CAWAYAN",
              "CONSOLACION",
              "CORO",
              "DUGYAN",
              "DUMALAN",
              "JOLOMAYNON",
              "LANAO",
              "LANGKAS",
              "LUMBANG",
              "MALONES",
              "MALORAY",
              "MANANGGAL",
              "MANLAPAY",
              "MANTALONGON",
              "NALHUB",
              "OBO",
              "OBONG",
              "PANAS",
              "POBLACION",
              "SACSAC",
              "SALUG",
              "TABON",
              "TAPUN",
              "TUBA"
            ]
          },
          "DANAO CITY": {
            "barangay_list": [
              "BALIANG",
              "BAYABAS",
              "BINALIW",
              "CABUNGAHAN",
              "CAGAT-LAMAC",
              "CAHUMAYAN",
              "CAMBANAY",
              "CAMBUBHO",
              "COGON-CRUZ",
              "DANASAN",
              "DUNGGA",
              "DUNGGOAN",
              "GUINACOT",
              "GUINSAY",
              "IBO",
              "LANGOSIG",
              "LAWAAN",
              "LICOS",
              "LOOC",
              "MAGTAGOBTOB",
              "MALAPOC",
              "MANLAYAG",
              "MANTIJA",
              "MASABA",
              "MASLOG",
              "NANGKA",
              "OGUIS",
              "PILI",
              "POBLACION",
              "QUISOL",
              "SABANG",
              "SACSAC",
              "SANDAYONG NORTE",
              "SANDAYONG SUR",
              "SANTA ROSA",
              "SANTICAN",
              "SIBACAN",
              "SUBA",
              "TABOC",
              "TAYTAY",
              "TOGONON",
              "TUBURAN SUR"
            ]
          },
          "DUMANJUG": {
            "barangay_list": [
              "BALAYGTIKI",
              "BITOON",
              "BULAK",
              "BULLOGAN",
              "CALABOON",
              "CAMBOANG",
              "CANDABONG",
              "COGON",
              "COTCOTON",
              "DOLDOL",
              "ILAYA (POB.)",
              "KABALAASNAN",
              "KABATBATAN",
              "KAMBANOG",
              "KANG-ACTOL",
              "KANGHALO",
              "KANGHUMAOD",
              "KANGUHA",
              "KANTANGKAS",
              "KANYUKO",
              "KOLABTINGON",
              "LAMAK",
              "LAWAAN",
              "LIONG",
              "MANLAPAY",
              "MASA",
              "MATALAO",
              "PACULOB",
              "PANLAAN",
              "PAWA",
              "POBLACION CENTRAL",
              "POBLACION LOOC",
              "POBLACION SIMA",
              "TANGIL",
              "TAPON",
              "TUBOD-BITOON",
              "TUBOD-DUGOAN"
            ]
          },
          "GINATILAN": {
            "barangay_list": [
              "ANAO",
              "CAGSING",
              "CALABAWAN",
              "CAMBAGTE",
              "CAMPISONG",
              "CANORONG",
              "GUIWANON",
              "LOOC",
              "MALATBO",
              "MANGACO",
              "PALANAS",
              "POBLACION",
              "SALAMANCA",
              "SAN ROQUE"
            ]
          },
          "LAPU-LAPU CITY (OPON)": {
            "barangay_list": [
              "AGUS",
              "BABAG",
              "BANKAL",
              "BARING",
              "BASAK",
              "BUAYA",
              "CALAWISAN",
              "CANJULAO",
              "CAUBIAN",
              "CAW-OY",
              "CAWHAGAN",
              "GUN-OB",
              "IBO",
              "LOOC",
              "MACTAN",
              "MARIBAGO",
              "MARIGONDON",
              "PAJAC",
              "PAJO",
              "PANGAN-AN",
              "POBLACION",
              "PUNTA ENGA\u00d1O",
              "PUSOK",
              "SABANG",
              "SAN VICENTE",
              "SANTA ROSA",
              "SUBABASBAS",
              "TALIMA",
              "TINGO",
              "TUNGASAN"
            ]
          },
          "LILOAN": {
            "barangay_list": [
              "CABADIANGAN",
              "CALERO",
              "CATARMAN",
              "COTCOT",
              "JUBAY",
              "LATABAN",
              "MULAO",
              "POBLACION",
              "SAN ROQUE",
              "SAN VICENTE",
              "SANTA CRUZ",
              "TABLA",
              "TAYUD",
              "YATI"
            ]
          },
          "MADRIDEJOS": {
            "barangay_list": [
              "BUNAKAN",
              "KANGWAYAN",
              "KAONGKOD",
              "KODIA",
              "MAALAT",
              "MALBAGO",
              "MANCILANG",
              "PILI",
              "POBLACION",
              "SAN AGUSTIN",
              "TABAGAK",
              "TALANGNAN",
              "TARONG",
              "TUGAS"
            ]
          },
          "MALABUYOC": {
            "barangay_list": [
              "ARME\u00d1A (CANSILONGAN)",
              "BARANGAY I (POB.)",
              "BARANGAY II (POB.)",
              "CERDE\u00d1A (ANSAN)",
              "LABRADOR (BULOD)",
              "LOMBO",
              "LOOC",
              "MAHANLUD",
              "MINDANAO (PAJO)",
              "MONTA\u00d1EZA (INAMLANG)",
              "SALMERON (BULAK)",
              "SANTO NI\u00d1O",
              "SORSOGON (BALIMAYA)",
              "TOLOSA (CALATAGAN)"
            ]
          },
          "MANDAUE CITY": {
            "barangay_list": [
              "ALANG-ALANG",
              "BAKILID",
              "BANILAD",
              "BASAK",
              "CABANCALAN",
              "CAMBARO",
              "CANDUMAN",
              "CASILI",
              "CASUNTINGAN",
              "CENTRO (POB.)",
              "CUBACUB",
              "GUIZO",
              "IBABAO-ESTANCIA",
              "JAGOBIAO",
              "LABOGON",
              "LOOC",
              "MAGUIKAY",
              "MANTUYONG",
              "OPAO",
              "PAGSABUNGAN",
              "PAKNA-AN",
              "SUBANGDAKU",
              "TABOK",
              "TAWASON",
              "TINGUB",
              "TIPOLO",
              "UMAPAD"
            ]
          },
          "MEDELLIN": {
            "barangay_list": [
              "ANTIPOLO",
              "CANHABAGAT",
              "CAPUTATAN NORTE",
              "CAPUTATAN SUR",
              "CURVA",
              "DAANLUNGSOD",
              "DALINGDING SUR",
              "DAYHAGON",
              "DON VIRGILIO GONZALES",
              "GIBITNGIL",
              "KAWIT",
              "LAMINTAK NORTE",
              "LAMINTAK SUR",
              "LUY-A",
              "MAHARUHAY",
              "MAHAWAK",
              "PANUGNAWAN",
              "POBLACION",
              "TINDOG"
            ]
          },
          "MINGLANILLA": {
            "barangay_list": [
              "CADULAWAN",
              "CALAJO-AN",
              "CAMP 7",
              "CAMP 8",
              "CUANOS",
              "GUINDARUHAN",
              "LINAO",
              "MANDUANG",
              "PAKIGNE",
              "POBLACION WARD I",
              "POBLACION WARD II",
              "POBLACION WARD III",
              "POBLACION WARD IV",
              "TUBOD",
              "TULAY",
              "TUNGHAAN",
              "TUNGKIL",
              "TUNGKOP",
              "VITO"
            ]
          },
          "MOALBOAL": {
            "barangay_list": [
              "AGBALANGA",
              "BALA",
              "BALABAGON",
              "BASDIOT",
              "BATADBATAD",
              "BUGHO",
              "BUGUIL",
              "BUSAY",
              "LANAO",
              "POBLACION EAST",
              "POBLACION WEST",
              "SAAVEDRA",
              "TOMONOY",
              "TUBLE",
              "TUNGA"
            ]
          },
          "NAGA CITY": {
            "barangay_list": [
              "ALFACO",
              "BAIRAN",
              "BALIRONG",
              "CABUNGAHAN",
              "CANTAO-AN",
              "CENTRAL POBLACION",
              "COGON",
              "COLON",
              "EAST POBLACION",
              "INAYAGAN",
              "INOBURAN",
              "JAGUIMIT",
              "LANAS",
              "LANGTAD",
              "LUTAC",
              "MAINIT",
              "MAYANA",
              "NAALAD",
              "NORTH POBLACION",
              "PANGDAN",
              "PATAG",
              "SOUTH POBLACION",
              "TAGJAGUIMIT",
              "TANGKE",
              "TINAAN",
              "TUYAN",
              "ULING",
              "WEST POBLACION"
            ]
          },
          "OSLOB": {
            "barangay_list": [
              "ALO",
              "BANGCOGON",
              "BONBON",
              "CALUMPANG",
              "CAN-UKBAN",
              "CANANGCA-AN",
              "CANSALO-AY",
              "CA\u00d1ANG",
              "DAANLUNGSOD",
              "GAWI",
              "HAGDAN",
              "LAGUNDE",
              "LOOC",
              "LUKA",
              "MAINIT",
              "MANLUM",
              "NUEVA CACERES",
              "POBLACION",
              "PUNGTOD",
              "TAN-AWAN",
              "TUMALOG"
            ]
          },
          "PILAR": {
            "barangay_list": [
              "BIASONG",
              "CAWIT",
              "DAPDAP",
              "ESPERANZA",
              "IMELDA",
              "LANAO",
              "LOWER POBLACION",
              "MOABOG",
              "MONTSERRAT",
              "SAN ISIDRO",
              "SAN JUAN",
              "UPPER POBLACION",
              "VILLAHERMOSA"
            ]
          },
          "PINAMUNGAHAN": {
            "barangay_list": [
              "ANISLAG",
              "ANOPOG",
              "BINABAG",
              "BUHINGTUBIG",
              "BUSAY",
              "BUTONG",
              "CABIANGON",
              "CAMUGAO",
              "DUANGAN",
              "GUIMBAWIAN",
              "LAMAC",
              "LUT-OD",
              "MANGOTO",
              "OPAO",
              "PANDACAN",
              "POBLACION",
              "PUNOD",
              "RIZAL",
              "SACSAC",
              "SAMBAGON",
              "SIBAGO",
              "TAJAO",
              "TANGUB",
              "TANIBAG",
              "TUPAS",
              "TUTAY"
            ]
          },
          "PORO": {
            "barangay_list": [
              "ADELA",
              "ALTAVISTA",
              "CAGCAGAN",
              "CANSABUSAB",
              "DAAN PAZ",
              "EASTERN POBLACION",
              "ESPERANZA",
              "LIBERTAD",
              "MABINI",
              "MERCEDES",
              "PAGSA",
              "PAZ",
              "RIZAL",
              "SAN JOSE",
              "SANTA RITA",
              "TEGUIS",
              "WESTERN POBLACION"
            ]
          },
          "RONDA": {
            "barangay_list": [
              "BUTONG",
              "CAN-ABUHON",
              "CANDULING",
              "CANSALONOY",
              "CANSAYAHON",
              "ILAYA",
              "LANGIN",
              "LIBO-O",
              "MALALAY",
              "PALANAS",
              "POBLACION",
              "SANTA CRUZ",
              "TUPAS",
              "VIVE"
            ]
          },
          "SAMBOAN": {
            "barangay_list": [
              "BASAK",
              "BONBON",
              "BULANGSURAN",
              "CALATAGAN",
              "CAMBIGONG",
              "CAMBUROY",
              "CANORONG",
              "COLASE",
              "DALAHIKAN",
              "JUMANGPAS",
              "MONTEVERDE",
              "POBLACION",
              "SAN SEBASTIAN",
              "SUBA",
              "TANGBO"
            ]
          },
          "SAN FERNANDO": {
            "barangay_list": [
              "BALUD",
              "BALUNGAG",
              "BASAK",
              "BUGHO",
              "CABATBATAN",
              "GREENHILLS",
              "ILAYA",
              "LANTAWAN",
              "LIBURON",
              "MAGSICO",
              "PANADTARAN",
              "PITALO",
              "POBLACION NORTH",
              "POBLACION SOUTH",
              "SAN ISIDRO",
              "SANGAT",
              "TABIONAN",
              "TANANAS",
              "TINUBDAN",
              "TONGGO",
              "TUBOD"
            ]
          },
          "SAN FRANCISCO": {
            "barangay_list": [
              "CABUNGA-AN",
              "CAMPO",
              "CONSUELO",
              "ESPERANZA",
              "HIMENSULAN",
              "MONTEALEGRE",
              "NORTHERN POBLACION",
              "SAN ISIDRO",
              "SANTA CRUZ",
              "SANTIAGO",
              "SONOG",
              "SOUTHERN POBLACION",
              "UNIDOS",
              "UNION",
              "WESTERN POBLACION"
            ]
          },
          "SAN REMIGIO": {
            "barangay_list": [
              "ANAPOG",
              "ARGAWANON",
              "BAGTIC",
              "BANCASAN",
              "BATAD",
              "BUSOGON",
              "CALAMBUA",
              "CANAGAHAN",
              "DAPDAP",
              "GAWAYGAWAY",
              "HAGNAYA",
              "KAYAM",
              "KINAWAHAN",
              "LAMBUSAN",
              "LAWIS",
              "LIBAONG",
              "LOOC",
              "LUYANG",
              "MANO",
              "POBLACION",
              "PUNTA",
              "SAB-A",
              "SAN MIGUEL",
              "TACUP",
              "TAMBONGON",
              "TO-ONG",
              "VICTORIA"
            ]
          },
          "SANTA FE": {
            "barangay_list": [
              "BALIDBID",
              "HAGDAN",
              "HILANTAGAAN",
              "KINATARKAN",
              "LANGUB",
              "MARICABAN",
              "OKOY",
              "POBLACION",
              "POOC",
              "TALISAY"
            ]
          },
          "SANTANDER": {
            "barangay_list": [
              "BUNLAN",
              "CABUTONGAN",
              "CANDAMIANG",
              "CANLUMACAD",
              "LILOAN",
              "LIP-TONG",
              "LOOC",
              "PASIL",
              "POBLACION",
              "TALISAY"
            ]
          },
          "SIBONGA": {
            "barangay_list": [
              "ABUGON",
              "BAE",
              "BAGACAY",
              "BAHAY",
              "BANLOT",
              "BASAK",
              "BATO",
              "CAGAY",
              "CAN-AGA",
              "CANDAGUIT",
              "CANTOLAROY",
              "DUGOAN",
              "GUIMBANGCO-AN",
              "LAMACAN",
              "LIBO",
              "LINDOGON",
              "MAGCAGONG",
              "MANATAD",
              "MANGYAN",
              "PAPAN",
              "POBLACION",
              "SABANG",
              "SAYAO",
              "SIMALA",
              "TUBOD"
            ]
          },
          "SOGOD": {
            "barangay_list": [
              "AMPONGOL",
              "BAGAKAY",
              "BAGATAYAM",
              "BAWO",
              "CABALAWAN",
              "CABANGAHAN",
              "CALUMBOYAN",
              "DAKIT",
              "DAMOLOG",
              "IBABAO",
              "LIKI",
              "LUBO",
              "MOHON",
              "NAHUS-AN",
              "PANSOY",
              "POBLACION",
              "TABUNOK",
              "TAKAY"
            ]
          },
          "TABOGON": {
            "barangay_list": [
              "ALANG-ALANG",
              "CADUAWAN",
              "CAMOBOAN",
              "CANAOCANAO",
              "COMBADO",
              "DAANTABOGON",
              "ILIHAN",
              "KAL-ANAN",
              "LABANGON",
              "LIBJO",
              "LOONG",
              "MABULI",
              "MANAGASE",
              "MANLAGTANG",
              "MASLOG",
              "MUABOG",
              "PIO",
              "POBLACION",
              "SALAG",
              "SAMBAG",
              "SAN ISIDRO",
              "SAN VICENTE",
              "SOMOSA",
              "TABA-AO",
              "TAPUL"
            ]
          },
          "TABUELAN": {
            "barangay_list": [
              "BONGON",
              "DALID",
              "KANLIM-AO",
              "KANLUHANGON",
              "KANTUBAON",
              "MABUNAO",
              "MARAVILLA",
              "OLIVO",
              "POBLACION",
              "TABUNOK",
              "TIGBAWAN",
              "VILLAHERMOSA"
            ]
          },
          "TALISAY CITY": {
            "barangay_list": [
              "BIASONG",
              "BULACAO",
              "CADULAWAN",
              "CAMP IV",
              "CANSOJONG",
              "DUMLOG",
              "JACLUPAN",
              "LAGTANG",
              "LAWAAN I",
              "LAWAAN II",
              "LAWAAN III",
              "LINAO",
              "MAGHAWAY",
              "MANIPIS",
              "MOHON",
              "POBLACION",
              "POOC",
              "SAN ISIDRO",
              "SAN ROQUE",
              "TABUNOC",
              "TANGKE",
              "TAPUL"
            ]
          },
          "TOLEDO CITY": {
            "barangay_list": [
              "AWIHAO",
              "BAGAKAY",
              "BATO",
              "BIGA",
              "BULONGAN",
              "BUNGA",
              "CABITOONAN",
              "CALONGCALONG",
              "CAMBANG-UG",
              "CAMP 8",
              "CANLUMAMPAO",
              "CANTABACO",
              "CAPITAN CLAUDIO",
              "CARMEN",
              "DAANGLUNGSOD",
              "DON ANDRES SORIANO (LUTOPAN)",
              "DUMLOG",
              "GEN. CLIMACO (MALUBOG)",
              "IBO",
              "ILIHAN",
              "JUAN CLIMACO, SR. (MAGDUGO)",
              "LANDAHAN",
              "LOAY",
              "LURAY II",
              "MATAB-ANG",
              "MEDIA ONCE",
              "PANGAMIHAN",
              "POBLACION",
              "POOG",
              "PUTINGBATO",
              "SAGAY",
              "SAM-ANG",
              "SANGI",
              "SANTO NI\u00d1O (MAINGGIT)",
              "SUBAYON",
              "TALAVERA",
              "TUBOD",
              "TUNGKAY"
            ]
          },
          "TUBURAN": {
            "barangay_list": [
              "ALEGRIA",
              "AMATUGAN",
              "ANTIPOLO",
              "APALAN",
              "BAGASAWE",
              "BAKYAWAN",
              "BANGKITO",
              "BARANGAY  I (POB.)",
              "BARANGAY  II (POB.)",
              "BARANGAY  III (POB.)",
              "BARANGAY  IV (POB.)",
              "BARANGAY  V (POB.)",
              "BARANGAY  VI (POB.)",
              "BARANGAY  VII (POB.)",
              "BARANGAY  VIII (POB.)",
              "BULWANG",
              "CARIDAD",
              "CARMELO",
              "COGON",
              "COLONIA",
              "DAAN LUNGSOD",
              "FORTALIZA",
              "GA-ANG",
              "GIMAMA-A",
              "JAGBUAYA",
              "KABANGKALAN",
              "KABKABAN",
              "KAGBA-O",
              "KALANGAHAN",
              "KAMANSI",
              "KAMPOOT",
              "KAN-AN",
              "KANLUNSING",
              "KANSI",
              "KAORASAN",
              "LIBO",
              "LUSONG",
              "MACUPA",
              "MAG-ALWA",
              "MAG-ANTOY",
              "MAG-ATUBANG",
              "MAGHAN-AY",
              "MANGGA",
              "MARMOL",
              "MOLOBOLO",
              "MONTEALEGRE",
              "PUTAT",
              "SAN JUAN",
              "SANDAYONG",
              "SANTO NI\u00d1O",
              "SIOTES",
              "SUMON",
              "TOMINJAO",
              "TOMUGPA"
            ]
          },
          "TUDELA": {
            "barangay_list": [
              "BUENAVISTA",
              "CALMANTE",
              "DAAN SECANTE",
              "GENERAL",
              "MCARTHUR",
              "NORTHERN POBLACION",
              "PUERTOBELLO",
              "SANTANDER",
              "SECANTE BAG-O",
              "SOUTHERN POBLACION",
              "VILLAHERMOSA"
            ]
          }
        }
      },
      "NEGROS ORIENTAL": {
        "municipality_list": {
          "AMLAN (AYUQUITAN)": {
            "barangay_list": [
              "BIO-OS",
              "JANTIANON",
              "JUGNO",
              "MAG-ABO",
              "POBLACION",
              "SILAB",
              "TAMBOJANGIN",
              "TANDAYAG"
            ]
          },
          "AYUNGON": {
            "barangay_list": [
              "AMDUS",
              "ANIBONG",
              "ATABAY",
              "AWA-AN",
              "BAN-BAN",
              "CALAGCALAG",
              "CANDANA-AY",
              "CAROL-AN",
              "GOMENTOC",
              "INACBAN",
              "INIBAN",
              "JANDALAMANON",
              "KILABAN",
              "LAMIGAN",
              "MAASLUM",
              "MABATO",
              "MANOGTONG",
              "NABHANG",
              "POBLACION",
              "TAMBO",
              "TAMPOCON  I",
              "TAMPOCON  II",
              "TIBYAWAN",
              "TIGUIB"
            ]
          },
          "BACONG": {
            "barangay_list": [
              "BALAYAGMANOK",
              "BANILAD",
              "BUNTIS",
              "BUNTOD",
              "CALANGAG",
              "COMBADO",
              "DOLDOL",
              "ISUGAN",
              "LIPTONG",
              "LUTAO",
              "MAGSUHOT",
              "MALABAGO",
              "MAMPAS",
              "NORTH POBLACION",
              "SACSAC",
              "SAN MIGUEL",
              "SOUTH POBLACION",
              "SULODPAN",
              "TIMBANGA",
              "TIMBAO",
              "TUBOD",
              "WEST POBLACION"
            ]
          },
          "BAIS CITY": {
            "barangay_list": [
              "BARANGAY  I (POB.)",
              "BARANGAY  II (POB.)",
              "BASAK",
              "BI\u00d1OHON",
              "CABANLUTAN",
              "CALASGA-AN",
              "CAMBAGAHAN",
              "CAMBAGUIO",
              "CAMBANJAO",
              "CAMBUILAO",
              "CANLARGO",
              "CAPI\u00d1AHAN",
              "CONSOLACION",
              "DANSULAN",
              "HANGYAD",
              "KATACGAHAN (TACGAHAN)",
              "LA PAZ",
              "LO-OC",
              "LONOY",
              "MABUNAO",
              "MANLIPAC",
              "MANSANGABAN",
              "OKIOT",
              "OLYMPIA",
              "PANALA-AN",
              "PANAM-ANGAN",
              "ROSARIO",
              "SAB-AHAN",
              "SAN ISIDRO",
              "TAGPO",
              "TALUNGON",
              "TAMISU",
              "TAMOGONG",
              "TANGCULOGAN",
              "VALENCIA"
            ]
          },
          "BASAY": {
            "barangay_list": [
              "ACTIN",
              "BAL-OS",
              "BONGALONAN",
              "CABALAYONGAN",
              "CABATUANAN",
              "LINANTAYAN",
              "MAGLINAO",
              "NAGBO-ALAO",
              "OLANDAO",
              "POBLACION"
            ]
          },
          "BAYAWAN CITY (TULONG)": {
            "barangay_list": [
              "ALI-IS",
              "BANAYBANAY",
              "BANGA",
              "BOYCO",
              "BUGAY",
              "CANSUMALIG",
              "DAWIS",
              "KALAMTUKAN",
              "KALUMBOYAN",
              "MALABUGAS",
              "MANDU-AO",
              "MANINIHON",
              "MINABA",
              "NANGKA",
              "NARRA",
              "PAGATBAN",
              "POBLACION",
              "SAN ISIDRO",
              "SAN JOSE",
              "SAN MIGUEL",
              "SAN ROQUE",
              "SUBA (POB.)",
              "TABUAN",
              "TAYAWAN",
              "TINAGO (POB.)",
              "UBOS (POB.)",
              "VILLAREAL",
              "VILLASOL (BATO)"
            ]
          },
          "BINDOY (PAYABON)": {
            "barangay_list": [
              "ATOTES",
              "BATANGAN",
              "BULOD",
              "CABCABAN",
              "CABUGAN",
              "CAMUDLAS",
              "CANLUTO",
              "DANAO",
              "DANAWAN",
              "DOMOLOG",
              "MALAGA",
              "MANSEJE",
              "MATOBATO",
              "NAGCASUNOG",
              "NALUNDAN",
              "PANGALAYCAYAN",
              "PE\u00d1AHAN",
              "POBLACION (PAYABON)",
              "SALONG",
              "TAGAYTAY",
              "TINAOGAN",
              "TUBOD"
            ]
          },
          "CANLAON CITY": {
            "barangay_list": [
              "BAYOG",
              "BINALBAGAN",
              "BUCALAN (EAST BUDSALAN)",
              "BUDLASAN (WEST BUDLASAN)",
              "LINOTHANGAN",
              "LUMAPAO",
              "MABIGO (POB.)",
              "MALAIBA",
              "MASULOG",
              "NINOY AQUINO",
              "PANUBIGAN",
              "PULA"
            ]
          },
          "DAUIN": {
            "barangay_list": [
              "ANAHAWAN",
              "APO ISLAND",
              "BAGACAY",
              "BASLAY",
              "BATUHON DACU",
              "BOLOC-BOLOC",
              "BULAK",
              "BUNGA",
              "CASILE",
              "LIBJO",
              "LIPAYO",
              "MAAYONGTUBIG",
              "MAG-ASO",
              "MAGSAYSAY",
              "MALONGCAY DACU",
              "MASAPLOD NORTE",
              "MASAPLOD SUR",
              "PANUBTUBAN",
              "POBLACION I",
              "POBLACION II",
              "POBLACION III",
              "TUGAWE",
              "TUNGA-TUNGA"
            ]
          },
          "DUMAGUETE CITY": {
            "barangay_list": [
              "BAGACAY",
              "BAJUMPANDAN",
              "BALUGO",
              "BANILAD",
              "BANTAYAN",
              "BATINGUEL",
              "BUNAO",
              "CADAWINONAN",
              "CALINDAGAN",
              "CAMANJAC",
              "CANDAU-AY",
              "CANTIL-E",
              "DARO",
              "JUNOB",
              "LOOC",
              "MANGNAO-CANAL",
              "MOTONG",
              "PIAPI",
              "POBLACION NO. 1 (BARANGAY 1)",
              "POBLACION NO. 2 (BARANGAY 2)",
              "POBLACION NO. 3 (BARANGAY 3)",
              "POBLACION NO. 4 (BARANGAY 4)",
              "POBLACION NO. 5 (BARANGAY 5)",
              "POBLACION NO. 6 (BARANGAY 6)",
              "POBLACION NO. 7 (BARANGAY 7)",
              "POBLACION NO. 8 (BARANGAY 8)",
              "PULANTUBIG",
              "TABUCTUBIG",
              "TACLOBO",
              "TALAY"
            ]
          },
          "GUIHULNGAN CITY": {
            "barangay_list": [
              "BAKID",
              "BALOGO",
              "BANWAQUE",
              "BASAK",
              "BINOBOHAN",
              "BUENAVISTA",
              "BULADO",
              "CALAMBA",
              "CALUPA-AN",
              "HIBAIYO",
              "HILAITAN",
              "HINAKPAN",
              "HUMAYHUMAY",
              "IMELDA",
              "KAGAWASAN",
              "LINANTUYAN",
              "LUZ",
              "MABUNGA",
              "MAGSAYSAY",
              "MALUSAY",
              "MANIAK",
              "MCKINLEY",
              "NAGSAHA",
              "PADRE ZAMORA",
              "PLAGATASANON",
              "PLANAS",
              "POBLACION",
              "SANDAYAO",
              "TACPAO",
              "TINAYUNAN BEACH",
              "TINAYUNAN HILL",
              "TRINIDAD",
              "VILLEGAS"
            ]
          },
          "JIMALALUD": {
            "barangay_list": [
              "AGLAHUG",
              "AGUTAYON",
              "APANANGON",
              "BAE",
              "BALA-AS",
              "BANGCAL",
              "BANOG",
              "BUTO",
              "CABANG",
              "CAMANDAYON",
              "CANGHARAY",
              "CANLAHAO",
              "DAYOYO",
              "ELI",
              "LACAON",
              "MAHANLUD",
              "MALABAGO",
              "MAMBAID",
              "MONGPONG",
              "NORTH POBLACION",
              "OWACAN",
              "PACUAN",
              "PANGLAYA-AN",
              "POLOPANTAO",
              "SAMPINITON",
              "SOUTH POBLACION",
              "TALAMBAN",
              "TAMAO"
            ]
          },
          "LA LIBERTAD": {
            "barangay_list": [
              "ANINIAW",
              "AYA",
              "BAGTIC",
              "BIGA-A",
              "BUSILAK",
              "CANGABO",
              "CANTUPA",
              "ELECIA (TALOSTOS)",
              "ELI",
              "GUIHOB",
              "KANSUMANDIG",
              "MAMBULOD",
              "MANDAPATON",
              "MANGHULYAWON",
              "MANLUMINSAG",
              "MAPALASAN",
              "MARAGONDONG",
              "MARTILO",
              "NASUNGAN",
              "PACUAN",
              "PANGCA",
              "PISONG",
              "PITOGO",
              "POBLACION NORTH",
              "POBLACION SOUTH",
              "SAN JOSE",
              "SOLONGON",
              "TALA-ON",
              "TALAYONG"
            ]
          },
          "MABINAY": {
            "barangay_list": [
              "ABIS",
              "AREBASORE",
              "BAGTIC",
              "BANBAN",
              "BARRAS",
              "BATO",
              "BUGNAY",
              "BULIBULIHAN",
              "BULWANG",
              "CAMPANUN-AN",
              "CANGGOHOB",
              "CANSAL-ING",
              "DAGBASAN",
              "DAHILE",
              "HAGTU",
              "HIMOCDONGON",
              "INAPOY",
              "LAMDAS",
              "LUMBANGAN",
              "LUYANG",
              "MANLINGAY",
              "MAYAPOSI",
              "NAPASU-AN",
              "NEW NAMANGKA",
              "OLD NAMANGKA",
              "PANDANON",
              "PANIABONAN",
              "PANTAO",
              "POBLACION",
              "SAMAC",
              "TADLONG",
              "TARA"
            ]
          },
          "MANJUYOD": {
            "barangay_list": [
              "ALANGILANAN",
              "BAGTIC",
              "BALAAS",
              "BANTOLINAO",
              "BOLISONG",
              "BUTONG",
              "CAMPUYO",
              "CANDABONG",
              "CONCEPCION",
              "DUNGO-AN",
              "KAUSWAGAN",
              "LAMOGONG",
              "LIBJO",
              "MAASLUM",
              "MANDALUPANG",
              "PANCIAO",
              "POBLACION",
              "SAC-SAC",
              "SALVACION",
              "SAN ISIDRO",
              "SAN JOSE",
              "SANTA MONICA",
              "SUBA",
              "SUNDO-AN",
              "TANGLAD",
              "TUBOD",
              "TUPAS"
            ]
          },
          "PAMPLONA": {
            "barangay_list": [
              "ABANTE",
              "BALAYONG",
              "BANAWE",
              "CALICANAN",
              "DATAGON",
              "FATIMA",
              "INAWASAN",
              "MAGSUSUNOG",
              "MALALANGSI",
              "MAMBURAO",
              "MANGOTO",
              "POBLACION",
              "SAN ISIDRO",
              "SANTA AGUEDA",
              "SIMBORIO",
              "YUPISAN"
            ]
          },
          "SAN JOSE": {
            "barangay_list": [
              "BASAK",
              "BASIAO",
              "CAMBALOCTOT",
              "CANCAWAS",
              "JANAYJANAY",
              "JILOCON",
              "NAIBA",
              "POBLACION",
              "SAN ROQUE",
              "SANTO NI\u00d1O",
              "SE\u00d1ORA ASCION (CALO)",
              "SIAPO",
              "TAMPI",
              "TAPON NORTE"
            ]
          },
          "SANTA CATALINA": {
            "barangay_list": [
              "ALANGILAN",
              "AMIO",
              "BUENAVISTA",
              "CAIGANGAN",
              "CARANOCHE",
              "CAWITAN",
              "FATIMA",
              "KABULACAN",
              "MABUHAY",
              "MANALONGON",
              "MANSAGOMAYON",
              "MILAGROSA",
              "NAGBALAYE",
              "NAGBINLOD",
              "OBAT",
              "POBLACION",
              "SAN FRANCISCO",
              "SAN JOSE",
              "SAN MIGUEL",
              "SAN PEDRO",
              "SANTO ROSARIO",
              "TALALAK"
            ]
          },
          "SIATON": {
            "barangay_list": [
              "ALBIGA",
              "APOLOY",
              "BONAWON",
              "BONBONON",
              "CABANGAHAN",
              "CANAWAY",
              "CASALA-AN",
              "CATICUGAN",
              "DATAG",
              "GILIGA-ON",
              "INALAD",
              "MALABUHAN",
              "MALOH",
              "MANTIQUIL",
              "MANTUYOP",
              "NAPACAO",
              "POBLACION I",
              "POBLACION II",
              "POBLACION III",
              "POBLACION IV",
              "SALAG",
              "SAN JOSE",
              "SANDULOT",
              "SI-IT",
              "SUMALIRING",
              "TAYAK"
            ]
          },
          "SIBULAN": {
            "barangay_list": [
              "AGAN-AN",
              "AJONG",
              "BALUGO",
              "BOLOCBOLOC",
              "CALABNUGAN",
              "CANGMATING",
              "ENRIQUE VILLANUEVA",
              "LOOC",
              "MAGATAS",
              "MANINGCAO",
              "MASLOG",
              "POBLACION",
              "SAN ANTONIO",
              "TUBIGON",
              "TUBTUBON"
            ]
          },
          "TANJAY CITY": {
            "barangay_list": [
              "AZAGRA",
              "BAHI-AN",
              "LUCA",
              "MANIPIS",
              "NOVALLAS",
              "OBOGON",
              "PAL-EW",
              "POBLACION I (BARANGAY 1)",
              "POBLACION II (BARANGAY 2)",
              "POBLACION III (BARANGAY 3)",
              "POBLACION IV (BARANGAY 4)",
              "POBLACION IX (BARANGAY 9)",
              "POBLACION V (BARANGAY 5)",
              "POBLACION VI (BARANGAY 6)",
              "POBLACION VII (BARANGAY 7)",
              "POBLACION VIII (BARANGAY 8)",
              "POLO",
              "SAN ISIDRO",
              "SAN JOSE",
              "SAN MIGUEL",
              "SANTA CRUZ NUEVO",
              "SANTA CRUZ VIEJO",
              "SANTO NI\u00d1O",
              "TUGAS"
            ]
          },
          "TAYASAN": {
            "barangay_list": [
              "BACONG",
              "BAGO",
              "BANGA",
              "CABULOTAN",
              "CAMBAYE",
              "DALAUPON",
              "GUINCALABAN",
              "ILAYA-TAYASAN",
              "JILABANGAN",
              "LAG-IT",
              "LINAO",
              "LUTAY",
              "MAGLIHE",
              "MAGTUHAO",
              "MATAUTA",
              "MATUOG",
              "NUMNUM",
              "PALASLAN",
              "PINALUBNGAN",
              "PINDAHAN",
              "PINOCAWAN",
              "POBLACION",
              "SANTA CRUZ",
              "SAYING",
              "SUQUIB",
              "TAMAO",
              "TAMBULAN",
              "TANLAD"
            ]
          },
          "VALENCIA (LUZURRIAGA)": {
            "barangay_list": [
              "APOLONG",
              "BALABAG EAST",
              "BALABAG WEST",
              "BALAYAGMANOK",
              "BALILI",
              "BALUGO",
              "BONG-AO",
              "BONGBONG",
              "CAIDIOCAN",
              "CALAYUGAN",
              "CAMBUCAD",
              "DOBDOB",
              "JAWA",
              "LIPTONG",
              "LUNGA",
              "MALABO",
              "MALAUNAY",
              "MAMPAS",
              "NORTH POBLACION",
              "PALINPINON",
              "PUHAGAN",
              "PULANGBATO",
              "SAGBANG",
              "SOUTH POBLACION"
            ]
          },
          "VALLEHERMOSO": {
            "barangay_list": [
              "BAGAWINES",
              "BAIRAN",
              "CABULIHAN",
              "DON ESPIRIDION VILLEGAS",
              "GUBA",
              "MACAPSO",
              "MAGLAHOS",
              "MALANGSA",
              "MOLOBOLO",
              "PINOCAWAN",
              "POBLACION",
              "PUAN",
              "TABON",
              "TAGBINO",
              "ULAY"
            ]
          },
          "ZAMBOANGUITA": {
            "barangay_list": [
              "BASAC",
              "CALANGO",
              "LOTUBAN",
              "MALONGCAY DIOT",
              "MALUAY",
              "MAYABON",
              "NABAGO",
              "NAJANDIG",
              "NASIG-ID",
              "POBLACION"
            ]
          }
        }
      },
      "SIQUIJOR": {
        "municipality_list": {
          "ENRIQUE VILLANUEVA": {
            "barangay_list": [
              "BALOLONG",
              "BINO-ONGAN",
              "BITAUG",
              "BOLOT",
              "CAMOGAO",
              "CANGMANGKI",
              "LIBO",
              "LOMANGCAPAN",
              "LOTLOTON",
              "MANAN-AO",
              "OLAVE",
              "PARIAN",
              "POBLACION",
              "TULAPOS"
            ]
          },
          "LARENA": {
            "barangay_list": [
              "BAGACAY",
              "BALOLANG",
              "BASAC",
              "BINTANGAN",
              "BONTOD",
              "CABULIHAN",
              "CALUNASAN",
              "CANDIGUM",
              "CANG-ALLAS",
              "CANG-APA",
              "CANGBAGSA",
              "CANGMALALAG",
              "CANLAMBO",
              "CANLASOG",
              "CATAMBOAN",
              "HELEN (DATAG)",
              "NONOC",
              "NORTH POBLACION",
              "PONONG",
              "SABANG",
              "SANDUGAN",
              "SOUTH POBLACION",
              "TACULING"
            ]
          },
          "LAZI": {
            "barangay_list": [
              "CAMPALANAS",
              "CANGCLARAN",
              "CANGOMANTONG",
              "CAPALASANAN",
              "CATAMBOAN (POB.)",
              "GABAYAN",
              "KIMBA",
              "KINAMANDAGAN",
              "LOWER CABANGCALAN",
              "NAGERONG",
              "PO-O",
              "SIMACOLONG",
              "TAGMANOCAN",
              "TALAYONG",
              "TIGBAWAN (POB.)",
              "TIGNAO",
              "UPPER CABANGCALAN",
              "YTAYA"
            ]
          },
          "MARIA": {
            "barangay_list": [
              "BOGO",
              "BONGA",
              "CABAL-ASAN",
              "CALUNASAN",
              "CANDAPING A",
              "CANDAPING B",
              "CANTAROC A",
              "CANTAROC B",
              "CANTUGBAS",
              "LICO-AN",
              "LILO-AN",
              "LOGUCAN",
              "LOOC",
              "MINALULAN",
              "NABUTAY",
              "OLANG",
              "PISONG A",
              "PISONG B",
              "POBLACION NORTE",
              "POBLACION SUR",
              "SAGUING",
              "SAWANG"
            ]
          },
          "SAN JUAN": {
            "barangay_list": [
              "CANASAGAN",
              "CANDURA",
              "CANGMUNAG",
              "CANSAYANG",
              "CATULAYAN",
              "LALA-O",
              "MAITE",
              "NAPO",
              "PALITON",
              "POBLACION",
              "SOLANGON",
              "TAG-IBO",
              "TAMBISAN",
              "TIMBAON",
              "TUBOD"
            ]
          },
          "SIQUIJOR": {
            "barangay_list": [
              "BANBAN",
              "BOLOS",
              "CAIPILAN",
              "CAITICAN",
              "CALALINAN",
              "CANAL",
              "CANDANAY NORTE",
              "CANDANAY SUR",
              "CANG-ADIENG",
              "CANG-AGONG",
              "CANG-ALWANG",
              "CANG-ASA",
              "CANG-ATUYOM",
              "CANG-INTE",
              "CANG-ISAD",
              "CANGHUNOGHUNOG",
              "CANGMATNOG",
              "CANGMOHAO",
              "CANTABON",
              "CATICUGAN",
              "DUMANHOG",
              "IBABAO",
              "LAMBOJON",
              "LUYANG",
              "LUZONG",
              "OLO",
              "PANGI",
              "PANLAUTAN",
              "PASIHAGON",
              "PILI",
              "POBLACION",
              "POLANGYUTA",
              "PONONG",
              "SABANG",
              "SAN ANTONIO",
              "SONGCULAN",
              "TACDOG",
              "TACLOBAN",
              "TAMBISAN",
              "TEBJONG",
              "TINAGO",
              "TONGO"
            ]
          }
        }
      }
    }
  }